{
  "photos": {
    "page": 1,
    "pages": 1806,
    "perpage": 100,
    "total": "180534",
    "photo": [
      {
        "id": "35923289165",
        "owner": "40081731@N05",
        "secret": "d4de32f357",
        "server": "4214",
        "farm": 5,
        "title": "Moz",
        "ispublic": 1,
        "isfriend": 0,
        "isfamily": 0
      },
      {
        "id": "35791595021",
        "owner": "40081731@N05",
        "secret": "0337ccc014",
        "server": "4303",
        "farm": 5,
        "title": "Trixie",
        "ispublic": 1,
        "isfriend": 0,
        "isfamily": 0
      },
      {
        "id": "35753324192",
        "owner": "16138357@N04",
        "secret": "b5142fcd6f",
        "server": "4306",
        "farm": 5,
        "title": "My next kitty ...",
        "ispublic": 1,
        "isfriend": 0,
        "isfamily": 0
      }
    ]
  }
}